D:\eclipse_luna_ws\SpringMVCTutorial\src\main\java\com\javainterviewpoint\EmployeeController.java
D:\eclipse_luna_ws\SpringMVCTutorial\src\main\java\com\javainterviewpoint\Employee.java
D:\eclipse_luna_ws\SpringMVCTutorial\src\main\java\com\javainterviewpoint\EmployeeDAO.java
D:\eclipse_luna_ws\SpringMVCTutorial\src\main\java\com\javainterviewpoint\EmployeeDAOImpl.java
